-- Merging decision tree log ---
manifest
ADDED from C:\Users\rodri\AndroidStudioProjects\Assets\FingerprintDialog\Application\src\main\AndroidManifest.xml:16:1-45:12
INJECTED from C:\Users\rodri\AndroidStudioProjects\Assets\FingerprintDialog\Application\src\main\AndroidManifest.xml:16:1-45:12
INJECTED from C:\Users\rodri\AndroidStudioProjects\Assets\FingerprintDialog\Application\src\main\AndroidManifest.xml:16:1-45:12
MERGED from [com.android.support:support-v13:25.0.1] C:\Users\rodri\.gradle\caches\transforms-1\files-1.1\support-v13-25.0.1.aar\78b8d2469f995a9e9369d3205c1d4fd7\AndroidManifest.xml:17:1-27:12
MERGED from [com.android.support:appcompat-v7:25.0.1] C:\Users\rodri\.gradle\caches\transforms-1\files-1.1\appcompat-v7-25.0.1.aar\654271f156f901e3bd76fcadfdf469a1\AndroidManifest.xml:17:1-27:12
MERGED from [com.android.support:support-v4:25.0.1] C:\Users\rodri\.gradle\caches\transforms-1\files-1.1\support-v4-25.0.1.aar\4090c3d3c2c8067de347d6a6596a6e04\AndroidManifest.xml:17:1-27:12
MERGED from [com.android.support:cardview-v7:25.0.1] C:\Users\rodri\.gradle\caches\transforms-1\files-1.1\cardview-v7-25.0.1.aar\ea393dd577d8de09bdb418f41f4a6849\AndroidManifest.xml:17:1-24:12
MERGED from [com.android.support:support-fragment:25.0.1] C:\Users\rodri\.gradle\caches\transforms-1\files-1.1\support-fragment-25.0.1.aar\0bcffc9c85ccbff4b6d05eed952c59b8\AndroidManifest.xml:17:1-27:12
MERGED from [com.android.support:support-media-compat:25.0.1] C:\Users\rodri\.gradle\caches\transforms-1\files-1.1\support-media-compat-25.0.1.aar\d9986b03cb7ad3c19bd5bb4d6f21ad44\AndroidManifest.xml:17:1-27:12
MERGED from [com.android.support:support-core-utils:25.0.1] C:\Users\rodri\.gradle\caches\transforms-1\files-1.1\support-core-utils-25.0.1.aar\421bbdff607f52b5248030b86394bcf3\AndroidManifest.xml:17:1-27:12
MERGED from [com.android.support:support-core-ui:25.0.1] C:\Users\rodri\.gradle\caches\transforms-1\files-1.1\support-core-ui-25.0.1.aar\0a736bc29f5e73a40ceb62b6cbdb08ef\AndroidManifest.xml:17:1-27:12
MERGED from [com.android.support:animated-vector-drawable:25.0.1] C:\Users\rodri\.gradle\caches\transforms-1\files-1.1\animated-vector-drawable-25.0.1.aar\a1343fb6cf0a6129b252b09abbd3f7f4\AndroidManifest.xml:17:1-24:12
MERGED from [com.android.support:support-vector-drawable:25.0.1] C:\Users\rodri\.gradle\caches\transforms-1\files-1.1\support-vector-drawable-25.0.1.aar\b9e0ecf97af66468a527d093f5ed5457\AndroidManifest.xml:17:1-25:12
MERGED from [com.android.support:support-compat:25.0.1] C:\Users\rodri\.gradle\caches\transforms-1\files-1.1\support-compat-25.0.1.aar\21c9dc1921a0b0f04d01d633ae418e81\AndroidManifest.xml:17:1-27:12
INJECTED from C:\Users\rodri\AndroidStudioProjects\Assets\FingerprintDialog\Application\src\main\AndroidManifest.xml:16:1-45:12
INJECTED from C:\Users\rodri\AndroidStudioProjects\Assets\FingerprintDialog\Application\src\main\AndroidManifest.xml:16:1-45:12
	package
		ADDED from C:\Users\rodri\AndroidStudioProjects\Assets\FingerprintDialog\Application\src\main\AndroidManifest.xml:16:11-58
	android:versionName
		ADDED from C:\Users\rodri\AndroidStudioProjects\Assets\FingerprintDialog\Application\src\main\AndroidManifest.xml:20:5-30
		INJECTED from C:\Users\rodri\AndroidStudioProjects\Assets\FingerprintDialog\Application\src\main\AndroidManifest.xml
		INJECTED from C:\Users\rodri\AndroidStudioProjects\Assets\FingerprintDialog\Application\src\main\AndroidManifest.xml
	xmlns:tools
		ADDED from C:\Users\rodri\AndroidStudioProjects\Assets\FingerprintDialog\Application\src\main\AndroidManifest.xml:18:5-51
	xmlns:android
		ADDED from C:\Users\rodri\AndroidStudioProjects\Assets\FingerprintDialog\Application\src\main\AndroidManifest.xml:17:5-63
	android:versionCode
		ADDED from C:\Users\rodri\AndroidStudioProjects\Assets\FingerprintDialog\Application\src\main\AndroidManifest.xml:19:5-28
		INJECTED from C:\Users\rodri\AndroidStudioProjects\Assets\FingerprintDialog\Application\src\main\AndroidManifest.xml
		INJECTED from C:\Users\rodri\AndroidStudioProjects\Assets\FingerprintDialog\Application\src\main\AndroidManifest.xml
uses-permission#android.permission.USE_FINGERPRINT
ADDED from C:\Users\rodri\AndroidStudioProjects\Assets\FingerprintDialog\Application\src\main\AndroidManifest.xml:22:5-74
	android:name
		ADDED from C:\Users\rodri\AndroidStudioProjects\Assets\FingerprintDialog\Application\src\main\AndroidManifest.xml:22:22-71
application
ADDED from C:\Users\rodri\AndroidStudioProjects\Assets\FingerprintDialog\Application\src\main\AndroidManifest.xml:24:5-44:19
MERGED from [com.android.support:support-v13:25.0.1] C:\Users\rodri\.gradle\caches\transforms-1\files-1.1\support-v13-25.0.1.aar\78b8d2469f995a9e9369d3205c1d4fd7\AndroidManifest.xml:25:5-20
MERGED from [com.android.support:support-v13:25.0.1] C:\Users\rodri\.gradle\caches\transforms-1\files-1.1\support-v13-25.0.1.aar\78b8d2469f995a9e9369d3205c1d4fd7\AndroidManifest.xml:25:5-20
MERGED from [com.android.support:appcompat-v7:25.0.1] C:\Users\rodri\.gradle\caches\transforms-1\files-1.1\appcompat-v7-25.0.1.aar\654271f156f901e3bd76fcadfdf469a1\AndroidManifest.xml:25:5-20
MERGED from [com.android.support:appcompat-v7:25.0.1] C:\Users\rodri\.gradle\caches\transforms-1\files-1.1\appcompat-v7-25.0.1.aar\654271f156f901e3bd76fcadfdf469a1\AndroidManifest.xml:25:5-20
MERGED from [com.android.support:support-v4:25.0.1] C:\Users\rodri\.gradle\caches\transforms-1\files-1.1\support-v4-25.0.1.aar\4090c3d3c2c8067de347d6a6596a6e04\AndroidManifest.xml:25:5-20
MERGED from [com.android.support:support-v4:25.0.1] C:\Users\rodri\.gradle\caches\transforms-1\files-1.1\support-v4-25.0.1.aar\4090c3d3c2c8067de347d6a6596a6e04\AndroidManifest.xml:25:5-20
MERGED from [com.android.support:cardview-v7:25.0.1] C:\Users\rodri\.gradle\caches\transforms-1\files-1.1\cardview-v7-25.0.1.aar\ea393dd577d8de09bdb418f41f4a6849\AndroidManifest.xml:22:5-20
MERGED from [com.android.support:cardview-v7:25.0.1] C:\Users\rodri\.gradle\caches\transforms-1\files-1.1\cardview-v7-25.0.1.aar\ea393dd577d8de09bdb418f41f4a6849\AndroidManifest.xml:22:5-20
MERGED from [com.android.support:support-fragment:25.0.1] C:\Users\rodri\.gradle\caches\transforms-1\files-1.1\support-fragment-25.0.1.aar\0bcffc9c85ccbff4b6d05eed952c59b8\AndroidManifest.xml:25:5-20
MERGED from [com.android.support:support-fragment:25.0.1] C:\Users\rodri\.gradle\caches\transforms-1\files-1.1\support-fragment-25.0.1.aar\0bcffc9c85ccbff4b6d05eed952c59b8\AndroidManifest.xml:25:5-20
MERGED from [com.android.support:support-media-compat:25.0.1] C:\Users\rodri\.gradle\caches\transforms-1\files-1.1\support-media-compat-25.0.1.aar\d9986b03cb7ad3c19bd5bb4d6f21ad44\AndroidManifest.xml:25:5-20
MERGED from [com.android.support:support-media-compat:25.0.1] C:\Users\rodri\.gradle\caches\transforms-1\files-1.1\support-media-compat-25.0.1.aar\d9986b03cb7ad3c19bd5bb4d6f21ad44\AndroidManifest.xml:25:5-20
MERGED from [com.android.support:support-core-utils:25.0.1] C:\Users\rodri\.gradle\caches\transforms-1\files-1.1\support-core-utils-25.0.1.aar\421bbdff607f52b5248030b86394bcf3\AndroidManifest.xml:25:5-20
MERGED from [com.android.support:support-core-utils:25.0.1] C:\Users\rodri\.gradle\caches\transforms-1\files-1.1\support-core-utils-25.0.1.aar\421bbdff607f52b5248030b86394bcf3\AndroidManifest.xml:25:5-20
MERGED from [com.android.support:support-core-ui:25.0.1] C:\Users\rodri\.gradle\caches\transforms-1\files-1.1\support-core-ui-25.0.1.aar\0a736bc29f5e73a40ceb62b6cbdb08ef\AndroidManifest.xml:25:5-20
MERGED from [com.android.support:support-core-ui:25.0.1] C:\Users\rodri\.gradle\caches\transforms-1\files-1.1\support-core-ui-25.0.1.aar\0a736bc29f5e73a40ceb62b6cbdb08ef\AndroidManifest.xml:25:5-20
MERGED from [com.android.support:animated-vector-drawable:25.0.1] C:\Users\rodri\.gradle\caches\transforms-1\files-1.1\animated-vector-drawable-25.0.1.aar\a1343fb6cf0a6129b252b09abbd3f7f4\AndroidManifest.xml:22:5-20
MERGED from [com.android.support:animated-vector-drawable:25.0.1] C:\Users\rodri\.gradle\caches\transforms-1\files-1.1\animated-vector-drawable-25.0.1.aar\a1343fb6cf0a6129b252b09abbd3f7f4\AndroidManifest.xml:22:5-20
MERGED from [com.android.support:support-vector-drawable:25.0.1] C:\Users\rodri\.gradle\caches\transforms-1\files-1.1\support-vector-drawable-25.0.1.aar\b9e0ecf97af66468a527d093f5ed5457\AndroidManifest.xml:23:5-20
MERGED from [com.android.support:support-vector-drawable:25.0.1] C:\Users\rodri\.gradle\caches\transforms-1\files-1.1\support-vector-drawable-25.0.1.aar\b9e0ecf97af66468a527d093f5ed5457\AndroidManifest.xml:23:5-20
MERGED from [com.android.support:support-compat:25.0.1] C:\Users\rodri\.gradle\caches\transforms-1\files-1.1\support-compat-25.0.1.aar\21c9dc1921a0b0f04d01d633ae418e81\AndroidManifest.xml:25:5-20
MERGED from [com.android.support:support-compat:25.0.1] C:\Users\rodri\.gradle\caches\transforms-1\files-1.1\support-compat-25.0.1.aar\21c9dc1921a0b0f04d01d633ae418e81\AndroidManifest.xml:25:5-20
	android:supportsRtl
		ADDED from C:\Users\rodri\AndroidStudioProjects\Assets\FingerprintDialog\Application\src\main\AndroidManifest.xml:28:9-35
	android:label
		ADDED from C:\Users\rodri\AndroidStudioProjects\Assets\FingerprintDialog\Application\src\main\AndroidManifest.xml:27:9-49
	tools:ignore
		ADDED from C:\Users\rodri\AndroidStudioProjects\Assets\FingerprintDialog\Application\src\main\AndroidManifest.xml:30:9-48
	android:icon
		ADDED from C:\Users\rodri\AndroidStudioProjects\Assets\FingerprintDialog\Application\src\main\AndroidManifest.xml:26:9-43
	android:allowBackup
		ADDED from C:\Users\rodri\AndroidStudioProjects\Assets\FingerprintDialog\Application\src\main\AndroidManifest.xml:25:9-35
	android:theme
		ADDED from C:\Users\rodri\AndroidStudioProjects\Assets\FingerprintDialog\Application\src\main\AndroidManifest.xml:29:9-53
activity#com.example.android.fingerprintdialog.MainActivity
ADDED from C:\Users\rodri\AndroidStudioProjects\Assets\FingerprintDialog\Application\src\main\AndroidManifest.xml:32:9-39:20
	android:label
		ADDED from C:\Users\rodri\AndroidStudioProjects\Assets\FingerprintDialog\Application\src\main\AndroidManifest.xml:34:13-53
	android:name
		ADDED from C:\Users\rodri\AndroidStudioProjects\Assets\FingerprintDialog\Application\src\main\AndroidManifest.xml:33:13-41
intent-filter#android.intent.action.MAIN+android.intent.category.LAUNCHER
ADDED from C:\Users\rodri\AndroidStudioProjects\Assets\FingerprintDialog\Application\src\main\AndroidManifest.xml:35:13-38:29
action#android.intent.action.MAIN
ADDED from C:\Users\rodri\AndroidStudioProjects\Assets\FingerprintDialog\Application\src\main\AndroidManifest.xml:36:17-69
	android:name
		ADDED from C:\Users\rodri\AndroidStudioProjects\Assets\FingerprintDialog\Application\src\main\AndroidManifest.xml:36:25-66
category#android.intent.category.LAUNCHER
ADDED from C:\Users\rodri\AndroidStudioProjects\Assets\FingerprintDialog\Application\src\main\AndroidManifest.xml:37:17-77
	android:name
		ADDED from C:\Users\rodri\AndroidStudioProjects\Assets\FingerprintDialog\Application\src\main\AndroidManifest.xml:37:27-74
activity#com.example.android.fingerprintdialog.SettingsActivity
ADDED from C:\Users\rodri\AndroidStudioProjects\Assets\FingerprintDialog\Application\src\main\AndroidManifest.xml:41:9-43:55
	android:label
		ADDED from C:\Users\rodri\AndroidStudioProjects\Assets\FingerprintDialog\Application\src\main\AndroidManifest.xml:43:13-52
	android:name
		ADDED from C:\Users\rodri\AndroidStudioProjects\Assets\FingerprintDialog\Application\src\main\AndroidManifest.xml:42:13-45
uses-sdk
INJECTED from C:\Users\rodri\AndroidStudioProjects\Assets\FingerprintDialog\Application\src\main\AndroidManifest.xml reason: use-sdk injection requested
INJECTED from C:\Users\rodri\AndroidStudioProjects\Assets\FingerprintDialog\Application\src\main\AndroidManifest.xml
INJECTED from C:\Users\rodri\AndroidStudioProjects\Assets\FingerprintDialog\Application\src\main\AndroidManifest.xml
MERGED from [com.android.support:support-v13:25.0.1] C:\Users\rodri\.gradle\caches\transforms-1\files-1.1\support-v13-25.0.1.aar\78b8d2469f995a9e9369d3205c1d4fd7\AndroidManifest.xml:21:5-23:55
MERGED from [com.android.support:support-v13:25.0.1] C:\Users\rodri\.gradle\caches\transforms-1\files-1.1\support-v13-25.0.1.aar\78b8d2469f995a9e9369d3205c1d4fd7\AndroidManifest.xml:21:5-23:55
MERGED from [com.android.support:appcompat-v7:25.0.1] C:\Users\rodri\.gradle\caches\transforms-1\files-1.1\appcompat-v7-25.0.1.aar\654271f156f901e3bd76fcadfdf469a1\AndroidManifest.xml:21:5-23:78
MERGED from [com.android.support:appcompat-v7:25.0.1] C:\Users\rodri\.gradle\caches\transforms-1\files-1.1\appcompat-v7-25.0.1.aar\654271f156f901e3bd76fcadfdf469a1\AndroidManifest.xml:21:5-23:78
MERGED from [com.android.support:support-v4:25.0.1] C:\Users\rodri\.gradle\caches\transforms-1\files-1.1\support-v4-25.0.1.aar\4090c3d3c2c8067de347d6a6596a6e04\AndroidManifest.xml:21:5-23:54
MERGED from [com.android.support:support-v4:25.0.1] C:\Users\rodri\.gradle\caches\transforms-1\files-1.1\support-v4-25.0.1.aar\4090c3d3c2c8067de347d6a6596a6e04\AndroidManifest.xml:21:5-23:54
MERGED from [com.android.support:cardview-v7:25.0.1] C:\Users\rodri\.gradle\caches\transforms-1\files-1.1\cardview-v7-25.0.1.aar\ea393dd577d8de09bdb418f41f4a6849\AndroidManifest.xml:20:5-43
MERGED from [com.android.support:cardview-v7:25.0.1] C:\Users\rodri\.gradle\caches\transforms-1\files-1.1\cardview-v7-25.0.1.aar\ea393dd577d8de09bdb418f41f4a6849\AndroidManifest.xml:20:5-43
MERGED from [com.android.support:support-fragment:25.0.1] C:\Users\rodri\.gradle\caches\transforms-1\files-1.1\support-fragment-25.0.1.aar\0bcffc9c85ccbff4b6d05eed952c59b8\AndroidManifest.xml:21:5-23:60
MERGED from [com.android.support:support-fragment:25.0.1] C:\Users\rodri\.gradle\caches\transforms-1\files-1.1\support-fragment-25.0.1.aar\0bcffc9c85ccbff4b6d05eed952c59b8\AndroidManifest.xml:21:5-23:60
MERGED from [com.android.support:support-media-compat:25.0.1] C:\Users\rodri\.gradle\caches\transforms-1\files-1.1\support-media-compat-25.0.1.aar\d9986b03cb7ad3c19bd5bb4d6f21ad44\AndroidManifest.xml:21:5-23:63
MERGED from [com.android.support:support-media-compat:25.0.1] C:\Users\rodri\.gradle\caches\transforms-1\files-1.1\support-media-compat-25.0.1.aar\d9986b03cb7ad3c19bd5bb4d6f21ad44\AndroidManifest.xml:21:5-23:63
MERGED from [com.android.support:support-core-utils:25.0.1] C:\Users\rodri\.gradle\caches\transforms-1\files-1.1\support-core-utils-25.0.1.aar\421bbdff607f52b5248030b86394bcf3\AndroidManifest.xml:21:5-23:61
MERGED from [com.android.support:support-core-utils:25.0.1] C:\Users\rodri\.gradle\caches\transforms-1\files-1.1\support-core-utils-25.0.1.aar\421bbdff607f52b5248030b86394bcf3\AndroidManifest.xml:21:5-23:61
MERGED from [com.android.support:support-core-ui:25.0.1] C:\Users\rodri\.gradle\caches\transforms-1\files-1.1\support-core-ui-25.0.1.aar\0a736bc29f5e73a40ceb62b6cbdb08ef\AndroidManifest.xml:21:5-23:58
MERGED from [com.android.support:support-core-ui:25.0.1] C:\Users\rodri\.gradle\caches\transforms-1\files-1.1\support-core-ui-25.0.1.aar\0a736bc29f5e73a40ceb62b6cbdb08ef\AndroidManifest.xml:21:5-23:58
MERGED from [com.android.support:animated-vector-drawable:25.0.1] C:\Users\rodri\.gradle\caches\transforms-1\files-1.1\animated-vector-drawable-25.0.1.aar\a1343fb6cf0a6129b252b09abbd3f7f4\AndroidManifest.xml:20:5-44
MERGED from [com.android.support:animated-vector-drawable:25.0.1] C:\Users\rodri\.gradle\caches\transforms-1\files-1.1\animated-vector-drawable-25.0.1.aar\a1343fb6cf0a6129b252b09abbd3f7f4\AndroidManifest.xml:20:5-44
MERGED from [com.android.support:support-vector-drawable:25.0.1] C:\Users\rodri\.gradle\caches\transforms-1\files-1.1\support-vector-drawable-25.0.1.aar\b9e0ecf97af66468a527d093f5ed5457\AndroidManifest.xml:21:5-43
MERGED from [com.android.support:support-vector-drawable:25.0.1] C:\Users\rodri\.gradle\caches\transforms-1\files-1.1\support-vector-drawable-25.0.1.aar\b9e0ecf97af66468a527d093f5ed5457\AndroidManifest.xml:21:5-43
MERGED from [com.android.support:support-compat:25.0.1] C:\Users\rodri\.gradle\caches\transforms-1\files-1.1\support-compat-25.0.1.aar\21c9dc1921a0b0f04d01d633ae418e81\AndroidManifest.xml:21:5-23:58
MERGED from [com.android.support:support-compat:25.0.1] C:\Users\rodri\.gradle\caches\transforms-1\files-1.1\support-compat-25.0.1.aar\21c9dc1921a0b0f04d01d633ae418e81\AndroidManifest.xml:21:5-23:58
INJECTED from C:\Users\rodri\AndroidStudioProjects\Assets\FingerprintDialog\Application\src\main\AndroidManifest.xml
INJECTED from C:\Users\rodri\AndroidStudioProjects\Assets\FingerprintDialog\Application\src\main\AndroidManifest.xml
	tools:overrideLibrary
		ADDED from [com.android.support:support-v13:25.0.1] C:\Users\rodri\.gradle\caches\transforms-1\files-1.1\support-v13-25.0.1.aar\78b8d2469f995a9e9369d3205c1d4fd7\AndroidManifest.xml:23:9-52
	android:targetSdkVersion
		INJECTED from C:\Users\rodri\AndroidStudioProjects\Assets\FingerprintDialog\Application\src\main\AndroidManifest.xml
		ADDED from C:\Users\rodri\AndroidStudioProjects\Assets\FingerprintDialog\Application\src\main\AndroidManifest.xml
		INJECTED from C:\Users\rodri\AndroidStudioProjects\Assets\FingerprintDialog\Application\src\main\AndroidManifest.xml
	android:minSdkVersion
		INJECTED from C:\Users\rodri\AndroidStudioProjects\Assets\FingerprintDialog\Application\src\main\AndroidManifest.xml
		ADDED from C:\Users\rodri\AndroidStudioProjects\Assets\FingerprintDialog\Application\src\main\AndroidManifest.xml
		INJECTED from C:\Users\rodri\AndroidStudioProjects\Assets\FingerprintDialog\Application\src\main\AndroidManifest.xml
